"CPU Time Used","Estimated Training Performance","Wallclock Time","Incumbent ID","Automatic Configurator (CPU) Time","Configuration..."
0.000000, 2147483648.000000, 0.000210, 1, 0.000210, __estimator__=''GaussianNB''
0.098919, 0.035714, 0.116660, 1, 0.017741, __estimator__=''GaussianNB''
12.529470, 0.026190, 22.801396, 2, 10.271926, __estimator__=''KNeighborsClassifier'', KNeighborsClassifier:n_neighbors='7', KNeighborsClassifier:p='2', KNeighborsClassifier:weights=''uniform''
43.894302, 0.017857, 81.346006, 3, 37.451704, __estimator__=''KNeighborsClassifier'', KNeighborsClassifier:n_neighbors='13', KNeighborsClassifier:p='2', KNeighborsClassifier:weights=''distance''
